ECM/Transistor/daten/mitgrenze.csv

Record Length,2500,Points,-809.999997728E-6,2.3999999,,Record Length,2500,Points,-809.999997728E-6,-25.27999878E-3,
Sample Interval,1.000000E-6,s,-808.999990113E-6,2.3999999,,Sample Interval,1.000000E-6,s,-808.999990113E-6,-25.27999878E-3,
Trigger Point,809.999999773,Samples,-807.999982499E-6,2.3999999,,Trigger Point,809.999999773,Samples,-807.999982499E-6,-25.27999878E-3,
,,,-806.999974884E-6,2.3999999,,,,,-806.999974884E-6,-25.27999878E-3,
,,,-806.000025477E-6,2.3999999,,,,,-806.000025477E-6,-25.59999935E-3,
,,,-805.000017863E-6,2.3999999,,,,,-805.000017863E-6,-25.91999993E-3,
Source,CH1,,-804.000010248E-6,2.3999999,,Source,CH2,,-804.000010248E-6,-25.91999993E-3,
Vertical Units,Volts,,-803.000002634E-6,2.4319999,,Vertical Units,Volts,,-803.000002634E-6,-25.91999993E-3,
Vertical Scale,799.999944866E-3,,-801.999995019E-6,2.4319999,,Vertical Scale,7.999999798E-3,,-801.999995019E-6,-25.91999993E-3,
Vertical Offset,0,,-800.999987405E-6,2.4319999,,Vertical Offset,0,,-800.999987405E-6,-25.91999993E-3,
Horizontal Units,s,,-799.999979790E-6,2.4319999,,Horizontal Units,s,,-799.999979790E-6,-26.23999864E-3,
Horizontal Scale,249.99999937E-6,,-798.999972176E-6,2.4319999,,Horizontal Scale,249.99999937E-6,,-798.999972176E-6,-26.23999864E-3,
Pt Fmt,Y,,-798.000022769E-6,2.4319999,,Pt Fmt,Y,,-798.000022769E-6,-26.23999864E-3,
Yzero,0.0,,-797.000015154E-6,2.4319999,,Yzero,-40.00000000E-3,,-797.000015154E-6,-26.23999864E-3,
Probe Atten,10.0000000,,-796.000007540E-6,2.4319999,,Probe Atten,1.000000,,-796.000007540E-6,-26.23999864E-3,
,,,-794.999999925E-6,2.4319999,,,,,-794.999999925E-6,-26.55999921E-3,
Note,TDS 2002 - 18:23:01   06.04.2022,,-793.999992311E-6,2.4319999,,Note,TDS 2002 - 18:23:01   06.04.2022,,-793.999992311E-6,-26.55999921E-3,
,,,-792.999984697E-6,2.4639997,,,,,-792.999984697E-6,-26.87999979E-3,
,,,-791.999977082E-6,2.4639997,,,,,-791.999977082E-6,-26.55999921E-3,
,,,-790.999969468E-6,2.4639997,,,,,-790.999969468E-6,-26.87999979E-3,
,,,-790.000020061E-6,2.4639997,,,,,-790.000020061E-6,-26.87999979E-3,
,,,-789.000012446E-6,2.4639997,,,,,-789.000012446E-6,-27.19999850E-3,
,,,-788.000004832E-6,2.4639997,,,,,-788.000004832E-6,-27.19999850E-3,
,,,-786.999997217E-6,2.4639997,,,,,-786.999997217E-6,-27.19999850E-3,
,,,-785.999989603E-6,2.4639997,,,,,-785.999989603E-6,-27.19999850E-3,
,,,-784.999981988E-6,2.4639997,,,,,-784.999981988E-6,-27.19999850E-3,
,,,-783.999974374E-6,2.4639997,,,,,-783.999974374E-6,-27.19999850E-3,
,,,-783.000024967E-6,2.4639997,,,,,-783.000024967E-6,-27.51999907E-3,
,,,-782.000017352E-6,2.4639997,,,,,-782.000017352E-6,-27.51999907E-3,
,,,-781.000009738E-6,2.4959998,,,,,-781.000009738E-6,-27.83999965E-3,
,,,-780.000002123E-6,2.4639997,,,,,-780.000002123E-6,-27.51999907E-3,
,,,-778.999994509E-6,2.4959998,,,,,-778.999994509E-6,-27.83999965E-3,
,,,-777.999986894E-6,2.4959998,,,,,-777.999986894E-6,-27.83999965E-3,
,,,-776.999979280E-6,2.4959998,,,,,-776.999979280E-6,-27.83999965E-3,
,,,-775.999971665E-6,2.4959998,,,,,-775.999971665E-6,-27.83999965E-3,
,,,-775.000022259E-6,2.4959998,,,,,-775.000022259E-6,-27.83999965E-3,
,,,-774.000014644E-6,2.4959998,,,,,-774.000014644E-6,-28.15999836E-3,
,,,-773.000007030E-6,2.4959998,,,,,-773.000007030E-6,-27.83999965E-3,
,,,-771.999999415E-6,2.4959998,,,,,-771.999999415E-6,-28.15999836E-3,
,,,-770.999991801E-6,2.4959998,,,,,-770.999991801E-6,-28.15999836E-3,
,,,-769.999984186E-6,2.4959998,,,,,-769.999984186E-6,-28.15999836E-3,
,,,-768.999976572E-6,2.4959998,,,,,-768.999976572E-6,-28.47999893E-3,
,,,-767.999968957E-6,2.4959998,,,,,-767.999968957E-6,-28.47999893E-3,
,,,-767.000019550E-6,2.4959998,,,,,-767.000019550E-6,-28.47999893E-3,
,,,-766.000011936E-6,2.5279999,,,,,-766.000011936E-6,-28.47999893E-3,
,,,-765.000004321E-6,2.4959998,,,,,-765.000004321E-6,-28.47999893E-3,
,,,-763.999996707E-6,2.5279999,,,,,-763.999996707E-6,-28.79999951E-3,
,,,-762.999989092E-6,2.5279999,,,,,-762.999989092E-6,-28.79999951E-3,
,,,-761.999981478E-6,2.4959998,,,,,-761.999981478E-6,-28.79999951E-3,
,,,-760.999973863E-6,2.5279999,,,,,-760.999973863E-6,-28.79999951E-3,
,,,-760.000024457E-6,2.4959998,,,,,-760.000024457E-6,-28.79999951E-3,
,,,-759.000016842E-6,2.4959998,,,,,-759.000016842E-6,-28.79999951E-3,
,,,-758.000009228E-6,2.4959998,,,,,-758.000009228E-6,-28.79999951E-3,
,,,-757.000001613E-6,2.5279999,,,,,-757.000001613E-6,-29.12000008E-3,
,,,-755.999993999E-6,2.4959998,,,,,-755.999993999E-6,-29.12000008E-3,
,,,-754.999986384E-6,2.5279999,,,,,-754.999986384E-6,-29.12000008E-3,
,,,-753.999978770E-6,2.5279999,,,,,-753.999978770E-6,-29.12000008E-3,
,,,-752.999971155E-6,2.5279999,,,,,-752.999971155E-6,-29.12000008E-3,
,,,-752.000021748E-6,2.4959998,,,,,-752.000021748E-6,-29.12000008E-3,
,,,-751.000014134E-6,2.5279999,,,,,-751.000014134E-6,-29.12000008E-3,
,,,-750.000006519E-6,2.5279999,,,,,-750.000006519E-6,-29.12000008E-3,
,,,-748.999998905E-6,2.5279999,,,,,-748.999998905E-6,-29.12000008E-3,
,,,-747.999991290E-6,2.5279999,,,,,-747.999991290E-6,-29.12000008E-3,
,,,-746.999983676E-6,2.5279999,,,,,-746.999983676E-6,-29.12000008E-3,
,,,-745.999976061E-6,2.5279999,,,,,-745.999976061E-6,-29.12000008E-3,
,,,-745.000026654E-6,2.5279999,,,,,-745.000026654E-6,-29.43999879E-3,
,,,-744.000019040E-6,2.5279999,,,,,-744.000019040E-6,-29.43999879E-3,
,,,-743.000011425E-6,2.5279999,,,,,-743.000011425E-6,-29.43999879E-3,
,,,-742.000003811E-6,2.4959998,,,,,-742.000003811E-6,-29.43999879E-3,
,,,-740.999996196E-6,2.5279999,,,,,-740.999996196E-6,-29.43999879E-3,
,,,-739.999988582E-6,2.4959998,,,,,-739.999988582E-6,-29.43999879E-3,
,,,-738.999980967E-6,2.5279999,,,,,-738.999980967E-6,-29.43999879E-3,
,,,-737.999973353E-6,2.4959998,,,,,-737.999973353E-6,-29.43999879E-3,
,,,-737.000023946E-6,2.4959998,,,,,-737.000023946E-6,-29.43999879E-3,
,,,-736.000016332E-6,2.4959998,,,,,-736.000016332E-6,-29.43999879E-3,
,,,-735.000008717E-6,2.5279999,,,,,-735.000008717E-6,-29.43999879E-3,
,,,-734.000001103E-6,2.4959998,,,,,-734.000001103E-6,-29.43999879E-3,
,,,-732.999993488E-6,2.4959998,,,,,-732.999993488E-6,-29.43999879E-3,
,,,-731.999985874E-6,2.4959998,,,,,-731.999985874E-6,-29.43999879E-3,
,,,-730.999978259E-6,2.4959998,,,,,-730.999978259E-6,-29.43999879E-3,
,,,-729.999970645E-6,2.4959998,,,,,-729.999970645E-6,-29.75999936E-3,
,,,-729.000021238E-6,2.4959998,,,,,-729.000021238E-6,-29.43999879E-3,
,,,-728.000013623E-6,2.4959998,,,,,-728.000013623E-6,-29.43999879E-3,
,,,-727.000006009E-6,2.4959998,,,,,-727.000006009E-6,-29.75999936E-3,
,,,-725.999998394E-6,2.4959998,,,,,-725.999998394E-6,-29.75999936E-3,
,,,-724.999990780E-6,2.4959998,,,,,-724.999990780E-6,-29.43999879E-3,
,,,-723.999983165E-6,2.4959998,,,,,-723.999983165E-6,-29.75999936E-3,
,,,-722.999975551E-6,2.4959998,,,,,-722.999975551E-6,-29.75999936E-3,
,,,-722.000026144E-6,2.4959998,,,,,-722.000026144E-6,-29.75999936E-3,
,,,-721.000018530E-6,2.4959998,,,,,-721.000018530E-6,-29.43999879E-3,
,,,-720.000010915E-6,2.4959998,,,,,-720.000010915E-6,-29.43999879E-3,
,,,-719.000003301E-6,2.4959998,,,,,-719.000003301E-6,-29.75999936E-3,
,,,-717.999995686E-6,2.4959998,,,,,-717.999995686E-6,-29.43999879E-3,
,,,-716.999988072E-6,2.4639997,,,,,-716.999988072E-6,-29.43999879E-3,
,,,-715.999980457E-6,2.4639997,,,,,-715.999980457E-6,-29.75999936E-3,
,,,-714.999972843E-6,2.4639997,,,,,-714.999972843E-6,-29.43999879E-3,
,,,-714.000023436E-6,2.4639997,,,,,-714.000023436E-6,-29.43999879E-3,
,,,-713.000015821E-6,2.4639997,,,,,-713.000015821E-6,-29.43999879E-3,
,,,-712.000008207E-6,2.4639997,,,,,-712.000008207E-6,-29.75999936E-3,
,,,-711.000000592E-6,2.4639997,,,,,-711.000000592E-6,-29.43999879E-3,
,,,-709.999992978E-6,2.4639997,,,,,-709.999992978E-6,-29.75999936E-3,
,,,-708.999985363E-6,2.4639997,,,,,-708.999985363E-6,-29.43999879E-3,
,,,-707.999977749E-6,2.4639997,,,,,-707.999977749E-6,-29.43999879E-3,
,,,-706.999970134E-6,2.4639997,,,,,-706.999970134E-6,-29.43999879E-3,
,,,-706.000020728E-6,2.4639997,,,,,-706.000020728E-6,-29.43999879E-3,
,,,-705.000013113E-6,2.4319999,,,,,-705.000013113E-6,-29.43999879E-3,
,,,-704.000005499E-6,2.4319999,,,,,-704.000005499E-6,-29.43999879E-3,
,,,-702.999997884E-6,2.4319999,,,,,-702.999997884E-6,-29.43999879E-3,
,,,-701.999990270E-6,2.4319999,,,,,-701.999990270E-6,-29.43999879E-3,
,,,-700.999982655E-6,2.4319999,,,,,-700.999982655E-6,-29.43999879E-3,
,,,-699.999975041E-6,2.4319999,,,,,-699.999975041E-6,-29.43999879E-3,
,,,-699.000025634E-6,2.4319999,,,,,-699.000025634E-6,-29.12000008E-3,
,,,-698.000018019E-6,2.4319999,,,,,-698.000018019E-6,-29.43999879E-3,
,,,-697.000010405E-6,2.4319999,,,,,-697.000010405E-6,-29.43999879E-3,
,,,-696.000002790E-6,2.4319999,,,,,-696.000002790E-6,-29.12000008E-3,
,,,-694.999995176E-6,2.3999999,,,,,-694.999995176E-6,-29.12000008E-3,
,,,-693.999987561E-6,2.3999999,,,,,-693.999987561E-6,-29.12000008E-3,
,,,-692.999979947E-6,2.3999999,,,,,-692.999979947E-6,-29.12000008E-3,
,,,-691.999972332E-6,2.3999999,,,,,-691.999972332E-6,-29.12000008E-3,
,,,-691.000022925E-6,2.3999999,,,,,-691.000022925E-6,-29.12000008E-3,
,,,-690.000015311E-6,2.3999999,,,,,-690.000015311E-6,-29.12000008E-3,
,,,-689.000007696E-6,2.3999999,,,,,-689.000007696E-6,-29.12000008E-3,
,,,-688.000000082E-6,2.3999999,,,,,-688.000000082E-6,-29.12000008E-3,
,,,-686.999992467E-6,2.3999999,,,,,-686.999992467E-6,-28.79999951E-3,
,,,-685.999984853E-6,2.3679998,,,,,-685.999984853E-6,-29.12000008E-3,
,,,-684.999977238E-6,2.3679998,,,,,-684.999977238E-6,-29.12000008E-3,
,,,-683.999969624E-6,2.3679998,,,,,-683.999969624E-6,-28.79999951E-3,
,,,-683.000020217E-6,2.3679998,,,,,-683.000020217E-6,-28.79999951E-3,
,,,-682.000012603E-6,2.3679998,,,,,-682.000012603E-6,-28.79999951E-3,
,,,-681.000004988E-6,2.3679998,,,,,-681.000004988E-6,-28.47999893E-3,
,,,-679.999997374E-6,2.3679998,,,,,-679.999997374E-6,-28.79999951E-3,
,,,-678.999989759E-6,2.3679998,,,,,-678.999989759E-6,-28.79999951E-3,
,,,-677.999982145E-6,2.3359997,,,,,-677.999982145E-6,-28.47999893E-3,
,,,-676.999974530E-6,2.3359997,,,,,-676.999974530E-6,-28.47999893E-3,
,,,-676.000025123E-6,2.3359997,,,,,-676.000025123E-6,-28.47999893E-3,
,,,-675.000017509E-6,2.3359997,,,,,-675.000017509E-6,-28.47999893E-3,
,,,-674.000009894E-6,2.3359997,,,,,-674.000009894E-6,-28.47999893E-3,
,,,-673.000002280E-6,2.3359997,,,,,-673.000002280E-6,-28.15999836E-3,
,,,-671.999994665E-6,2.3039999,,,,,-671.999994665E-6,-28.15999836E-3,
,,,-670.999987051E-6,2.3039999,,,,,-670.999987051E-6,-28.15999836E-3,
,,,-669.999979436E-6,2.3039999,,,,,-669.999979436E-6,-28.15999836E-3,
,,,-668.999971822E-6,2.3039999,,,,,-668.999971822E-6,-28.15999836E-3,
,,,-668.000022415E-6,2.3039999,,,,,-668.000022415E-6,-27.83999965E-3,
,,,-667.000014801E-6,2.3039999,,,,,-667.000014801E-6,-27.83999965E-3,
,,,-666.000007186E-6,2.3039999,,,,,-666.000007186E-6,-27.83999965E-3,
,,,-664.999999572E-6,2.2719998,,,,,-664.999999572E-6,-27.83999965E-3,
,,,-663.999991957E-6,2.2719998,,,,,-663.999991957E-6,-27.83999965E-3,
,,,-662.999984343E-6,2.2719998,,,,,-662.999984343E-6,-27.51999907E-3,
,,,-661.999976728E-6,2.2719998,,,,,-661.999976728E-6,-27.51999907E-3,
,,,-660.999969114E-6,2.2719998,,,,,-660.999969114E-6,-27.51999907E-3,
,,,-660.000019707E-6,2.2719998,,,,,-660.000019707E-6,-27.51999907E-3,
,,,-659.000012092E-6,2.2399998,,,,,-659.000012092E-6,-27.51999907E-3,
,,,-658.000004478E-6,2.2399998,,,,,-658.000004478E-6,-27.19999850E-3,
,,,-656.999996863E-6,2.2399998,,,,,-656.999996863E-6,-27.19999850E-3,
,,,-655.999989249E-6,2.2399998,,,,,-655.999989249E-6,-27.19999850E-3,
,,,-654.999981634E-6,2.2399998,,,,,-654.999981634E-6,-27.19999850E-3,
,,,-653.999974020E-6,2.2079999,,,,,-653.999974020E-6,-26.87999979E-3,
,,,-653.000024613E-6,2.2079999,,,,,-653.000024613E-6,-26.87999979E-3,
,,,-652.000016998E-6,2.2079999,,,,,-652.000016998E-6,-26.87999979E-3,
,,,-651.000009384E-6,2.2079999,,,,,-651.000009384E-6,-26.55999921E-3,
,,,-650.000001770E-6,2.2079999,,,,,-650.000001770E-6,-26.87999979E-3,
,,,-648.999994155E-6,2.2079999,,,,,-648.999994155E-6,-26.55999921E-3,
,,,-647.999986541E-6,2.1759999,,,,,-647.999986541E-6,-26.55999921E-3,
,,,-646.999978926E-6,2.1759999,,,,,-646.999978926E-6,-26.55999921E-3,
,,,-645.999971312E-6,2.1759999,,,,,-645.999971312E-6,-26.23999864E-3,
,,,-645.000021905E-6,2.1439998,,,,,-645.000021905E-6,-26.23999864E-3,
,,,-644.000014290E-6,2.1439998,,,,,-644.000014290E-6,-25.91999993E-3,
,,,-643.000006676E-6,2.1439998,,,,,-643.000006676E-6,-25.91999993E-3,
,,,-641.999999061E-6,2.1439998,,,,,-641.999999061E-6,-25.91999993E-3,
,,,-640.999991447E-6,2.1439998,,,,,-640.999991447E-6,-25.91999993E-3,
,,,-639.999983832E-6,2.1439998,,,,,-639.999983832E-6,-25.59999935E-3,
,,,-638.999976218E-6,2.1119998,,,,,-638.999976218E-6,-25.59999935E-3,
,,,-638.000026811E-6,2.1119998,,,,,-638.000026811E-6,-25.59999935E-3,
,,,-637.000019196E-6,2.1119998,,,,,-637.000019196E-6,-25.59999935E-3,
,,,-636.000011582E-6,2.1119998,,,,,-636.000011582E-6,-25.59999935E-3,
,,,-635.000003967E-6,2.1119998,,,,,-635.000003967E-6,-25.27999878E-3,
,,,-633.999996353E-6,2.0799999,,,,,-633.999996353E-6,-25.27999878E-3,
,,,-632.999988738E-6,2.0799999,,,,,-632.999988738E-6,-24.96000007E-3,
,,,-631.999981124E-6,2.0799999,,,,,-631.999981124E-6,-24.96000007E-3,
,,,-630.999973509E-6,2.0799999,,,,,-630.999973509E-6,-24.96000007E-3,
,,,-630.000024103E-6,2.0479999,,,,,-630.000024103E-6,-24.96000007E-3,
,,,-629.000016488E-6,2.0479999,,,,,-629.000016488E-6,-24.63999949E-3,
,,,-628.000008874E-6,2.0479999,,,,,-628.000008874E-6,-24.31999892E-3,
,,,-627.000001259E-6,2.0479999,,,,,-627.000001259E-6,-24.31999892E-3,
,,,-625.999993645E-6,2.0479999,,,,,-625.999993645E-6,-24.31999892E-3,
,,,-624.999986030E-6,2.0159998,,,,,-624.999986030E-6,-24.31999892E-3,
,,,-623.999978416E-6,2.0159998,,,,,-623.999978416E-6,-24.31999892E-3,
,,,-622.999970801E-6,2.0159998,,,,,-622.999970801E-6,-24.00000021E-3,
,,,-622.000021394E-6,2.0159998,,,,,-622.000021394E-6,-23.67999963E-3,
,,,-621.000013780E-6,1.9839998,,,,,-621.000013780E-6,-23.67999963E-3,
,,,-620.000006165E-6,1.9839998,,,,,-620.000006165E-6,-23.67999963E-3,
,,,-618.999998551E-6,1.9839998,,,,,-618.999998551E-6,-23.35999906E-3,
,,,-617.999990936E-6,1.9519999,,,,,-617.999990936E-6,-23.35999906E-3,
,,,-616.999983322E-6,1.9519999,,,,,-616.999983322E-6,-23.35999906E-3,
,,,-615.999975707E-6,1.9519999,,,,,-615.999975707E-6,-23.35999906E-3,
,,,-615.000026301E-6,1.9519999,,,,,-615.000026301E-6,-23.04000035E-3,
,,,-614.000018686E-6,1.9519999,,,,,-614.000018686E-6,-23.04000035E-3,
,,,-613.000011072E-6,1.9199998,,,,,-613.000011072E-6,-22.71999978E-3,
,,,-612.000003457E-6,1.9199998,,,,,-612.000003457E-6,-22.71999978E-3,
,,,-610.999995843E-6,1.8879999,,,,,-610.999995843E-6,-22.39999920E-3,
,,,-609.999988228E-6,1.8879999,,,,,-609.999988228E-6,-22.71999978E-3,
,,,-608.999980614E-6,1.8879999,,,,,-608.999980614E-6,-22.39999920E-3,
,,,-607.999972999E-6,1.8879999,,,,,-607.999972999E-6,-22.07999863E-3,
,,,-607.000023592E-6,1.8559998,,,,,-607.000023592E-6,-22.07999863E-3,
,,,-606.000015978E-6,1.8559998,,,,,-606.000015978E-6,-21.75999992E-3,
,,,-605.000008363E-6,1.8559998,,,,,-605.000008363E-6,-21.75999992E-3,
,,,-604.000000749E-6,1.8239999,,,,,-604.000000749E-6,-21.75999992E-3,
,,,-602.999993134E-6,1.8239999,,,,,-602.999993134E-6,-21.43999934E-3,
,,,-601.999985520E-6,1.8239999,,,,,-601.999985520E-6,-21.43999934E-3,
,,,-600.999977905E-6,1.8239999,,,,,-600.999977905E-6,-21.43999934E-3,
,,,-599.999970291E-6,1.7919998,,,,,-599.999970291E-6,-21.11999877E-3,
,,,-599.000020884E-6,1.7919998,,,,,-599.000020884E-6,-21.11999877E-3,
,,,-598.000013269E-6,1.7919998,,,,,-598.000013269E-6,-21.11999877E-3,
,,,-597.000005655E-6,1.7599999,,,,,-597.000005655E-6,-20.80000006E-3,
,,,-595.999998040E-6,1.7599999,,,,,-595.999998040E-6,-20.47999948E-3,
,,,-594.999990426E-6,1.7599999,,,,,-594.999990426E-6,-20.47999948E-3,
,,,-593.999982812E-6,1.7599999,,,,,-593.999982812E-6,-20.47999948E-3,
,,,-592.999975197E-6,1.7279999,,,,,-592.999975197E-6,-20.15999891E-3,
,,,-592.000025790E-6,1.7279999,,,,,-592.000025790E-6,-20.15999891E-3,
,,,-591.000018176E-6,1.7279999,,,,,-591.000018176E-6,-19.8400002E-3,
,,,-590.000010561E-6,1.6959999,,,,,-590.000010561E-6,-20.15999891E-3,
,,,-589.000002947E-6,1.6959999,,,,,-589.000002947E-6,-19.8400002E-3,
,,,-587.999995332E-6,1.6959999,,,,,-587.999995332E-6,-19.8400002E-3,
,,,-586.999987718E-6,1.6639999,,,,,-586.999987718E-6,-19.5199996E-3,
,,,-585.999980103E-6,1.6639999,,,,,-585.999980103E-6,-19.1999990E-3,
,,,-584.999972489E-6,1.6639999,,,,,-584.999972489E-6,-19.1999990E-3,
,,,-584.000023082E-6,1.6319999,,,,,-584.000023082E-6,-19.1999990E-3,
,,,-583.000015467E-6,1.6319999,,,,,-583.000015467E-6,-18.8800003E-3,
,,,-582.000007853E-6,1.6319999,,,,,-582.000007853E-6,-18.5599998E-3,
,,,-581.000000238E-6,1.5999999,,,,,-581.000000238E-6,-18.8800003E-3,
,,,-579.999992624E-6,1.5999999,,,,,-579.999992624E-6,-18.5599998E-3,
,,,-578.999985009E-6,1.5999999,,,,,-578.999985009E-6,-18.2399992E-3,
,,,-577.999977395E-6,1.5679998,,,,,-577.999977395E-6,-18.2399992E-3,
,,,-576.999969780E-6,1.5679998,,,,,-576.999969780E-6,-17.9199986E-3,
,,,-576.000020374E-6,1.5679998,,,,,-576.000020374E-6,-17.9199986E-3,
,,,-575.000012759E-6,1.5359999,,,,,-575.000012759E-6,-17.5999999E-3,
,,,-574.000005145E-6,1.5359999,,,,,-574.000005145E-6,-17.5999999E-3,
,,,-572.999997530E-6,1.5039999,,,,,-572.999997530E-6,-17.2799993E-3,
,,,-571.999989916E-6,1.5039999,,,,,-571.999989916E-6,-17.2799993E-3,
,,,-570.999982301E-6,1.5039999,,,,,-570.999982301E-6,-16.9599988E-3,
,,,-569.999974687E-6,1.4719999,,,,,-569.999974687E-6,-16.9599988E-3,
,,,-569.000025280E-6,1.4719999,,,,,-569.000025280E-6,-16.9599988E-3,
,,,-568.000017665E-6,1.4399999,,,,,-568.000017665E-6,-16.6400000E-3,
,,,-567.000010051E-6,1.4399999,,,,,-567.000010051E-6,-16.6400000E-3,
,,,-566.000002436E-6,1.4399999,,,,,-566.000002436E-6,-16.3199995E-3,
,,,-564.999994822E-6,1.4079999,,,,,-564.999994822E-6,-16.3199995E-3,
,,,-563.999987207E-6,1.4079999,,,,,-563.999987207E-6,-15.9999989E-3,
,,,-562.999979593E-6,1.4079999,,,,,-562.999979593E-6,-15.9999989E-3,
,,,-561.999971978E-6,1.3759999,,,,,-561.999971978E-6,-15.6800002E-3,
,,,-561.000022572E-6,1.3759999,,,,,-561.000022572E-6,-15.6800002E-3,
,,,-560.000014957E-6,1.3439999,,,,,-560.000014957E-6,-15.3599996E-3,
,,,-559.000007343E-6,1.3439999,,,,,-559.000007343E-6,-15.0400000E-3,
,,,-557.999999728E-6,1.3439999,,,,,-557.999999728E-6,-15.0400000E-3,
,,,-556.999992114E-6,1.3119999,,,,,-556.999992114E-6,-15.0400000E-3,
,,,-555.999984499E-6,1.3119999,,,,,-555.999984499E-6,-14.7199994E-3,
,,,-554.999976885E-6,1.2800000,,,,,-554.999976885E-6,-14.3999998E-3,
,,,-554.000027478E-6,1.2800000,,,,,-554.000027478E-6,-14.3999998E-3,
,,,-553.000019863E-6,1.2800000,,,,,-553.000019863E-6,-14.3999998E-3,
,,,-552.000012249E-6,1.2479999,,,,,-552.000012249E-6,-14.0799992E-3,
,,,-551.000004634E-6,1.2479999,,,,,-551.000004634E-6,-13.7599995E-3,
,,,-549.999997020E-6,1.2160000,,,,,-549.999997020E-6,-13.7599995E-3,
,,,-548.999989405E-6,1.2160000,,,,,-548.999989405E-6,-13.7599995E-3,
,,,-547.999981791E-6,1.1839999,,,,,-547.999981791E-6,-13.4399999E-3,
,,,-546.999974176E-6,1.1839999,,,,,-546.999974176E-6,-13.1199993E-3,
,,,-546.000024769E-6,1.1839999,,,,,-546.000024769E-6,-13.1199993E-3,
,,,-545.000017155E-6,1.1520000,,,,,-545.000017155E-6,-12.7999997E-3,
,,,-544.000009540E-6,1.1520000,,,,,-544.000009540E-6,-12.7999997E-3,
,,,-543.000001926E-6,1.1199999,,,,,-543.000001926E-6,-12.4800000E-3,
,,,-541.999994311E-6,1.1199999,,,,,-541.999994311E-6,-12.4800000E-3,
,,,-540.999986697E-6,1.0879999,,,,,-540.999986697E-6,-12.1599995E-3,
,,,-539.999979082E-6,1.0879999,,,,,-539.999979082E-6,-12.1599995E-3,
,,,-538.999971468E-6,1.0559999,,,,,-538.999971468E-6,-11.8399998E-3,
,,,-538.000022061E-6,1.0559999,,,,,-538.000022061E-6,-11.8399998E-3,
,,,-537.000014447E-6,1.0239999,,,,,-537.000014447E-6,-11.5200002E-3,
,,,-536.000006832E-6,1.0239999,,,,,-536.000006832E-6,-11.1999996E-3,
,,,-534.999999218E-6,991.999924183E-3,,,,,-534.999999218E-6,-11.1999996E-3,
,,,-533.999991603E-6,991.999924183E-3,,,,,-533.999991603E-6,-11.1999996E-3,
,,,-532.999983989E-6,991.999924183E-3,,,,,-532.999983989E-6,-10.8800000E-3,
