ECM/Transistor/daten/mitkond24mv.csv

Record Length,2500,Points,-809.999997728E-6,1.0800000,,Record Length,2500,Points,-809.999997728E-6,-10.3647998E-3,
Sample Interval,1.000000E-6,s,-808.999990113E-6,1.0920000,,Sample Interval,1.000000E-6,s,-808.999990113E-6,-10.2383997E-3,
Trigger Point,809.999999773,Samples,-807.999982499E-6,1.0920000,,Trigger Point,809.999999773,Samples,-807.999982499E-6,-10.4911998E-3,
,,,-806.999974884E-6,1.0920000,,,,,-806.999974884E-6,-10.3647998E-3,
,,,-806.000025477E-6,1.0920000,,,,,-806.000025477E-6,-10.4911998E-3,
,,,-805.000017863E-6,1.0920000,,,,,-805.000017863E-6,-10.4911998E-3,
Source,CH1,,-804.000010248E-6,1.0920000,,Source,CH2,,-804.000010248E-6,-10.6175998E-3,
Vertical Units,Volts,,-803.000002634E-6,1.0920000,,Vertical Units,Volts,,-803.000002634E-6,-10.6175998E-3,
Vertical Scale,300.00000261E-3,,-801.999995019E-6,1.0920000,,Vertical Scale,3.16000005E-3,,-801.999995019E-6,-10.6175998E-3,
Vertical Offset,0,,-800.999987405E-6,1.1040000,,Vertical Offset,0,,-800.999987405E-6,-10.7439999E-3,
Horizontal Units,s,,-799.999979790E-6,1.1040000,,Horizontal Units,s,,-799.999979790E-6,-10.6175998E-3,
Horizontal Scale,249.99999937E-6,,-798.999972176E-6,1.1040000,,Horizontal Scale,249.99999937E-6,,-798.999972176E-6,-10.7439999E-3,
Pt Fmt,Y,,-798.000022769E-6,1.1040000,,Pt Fmt,Y,,-798.000022769E-6,-10.7439999E-3,
Yzero,0.0,,-797.000015154E-6,1.1160001,,Yzero,-40.00000000E-3,,-797.000015154E-6,-10.8703999E-3,
Probe Atten,10.0000000,,-796.000007540E-6,1.1040000,,Probe Atten,1.000000,,-796.000007540E-6,-10.8703999E-3,
,,,-794.999999925E-6,1.1160001,,,,,-794.999999925E-6,-10.7439999E-3,
Note,TDS 2002 - 18:13:41   06.04.2022,,-793.999992311E-6,1.1040000,,Note,TDS 2002 - 18:13:41   06.04.2022,,-793.999992311E-6,-10.8703999E-3,
,,,-792.999984697E-6,1.1160001,,,,,-792.999984697E-6,-10.9967999E-3,
,,,-791.999977082E-6,1.1160001,,,,,-791.999977082E-6,-10.7439999E-3,
,,,-790.999969468E-6,1.1160001,,,,,-790.999969468E-6,-10.9967999E-3,
,,,-790.000020061E-6,1.1160001,,,,,-790.000020061E-6,-10.9967999E-3,
,,,-789.000012446E-6,1.1280000,,,,,-789.000012446E-6,-10.9967999E-3,
,,,-788.000004832E-6,1.1160001,,,,,-788.000004832E-6,-10.9967999E-3,
,,,-786.999997217E-6,1.1160001,,,,,-786.999997217E-6,-10.9967999E-3,
,,,-785.999989603E-6,1.1280000,,,,,-785.999989603E-6,-11.1231999E-3,
,,,-784.999981988E-6,1.1280000,,,,,-784.999981988E-6,-10.9967999E-3,
,,,-783.999974374E-6,1.1280000,,,,,-783.999974374E-6,-11.2496000E-3,
,,,-783.000024967E-6,1.1280000,,,,,-783.000024967E-6,-11.2496000E-3,
,,,-782.000017352E-6,1.1280000,,,,,-782.000017352E-6,-11.1231999E-3,
,,,-781.000009738E-6,1.1160001,,,,,-781.000009738E-6,-11.2496000E-3,
,,,-780.000002123E-6,1.1280000,,,,,-780.000002123E-6,-11.2496000E-3,
,,,-778.999994509E-6,1.1280000,,,,,-778.999994509E-6,-11.3760000E-3,
,,,-777.999986894E-6,1.1400000,,,,,-777.999986894E-6,-11.3760000E-3,
,,,-776.999979280E-6,1.1280000,,,,,-776.999979280E-6,-11.2496000E-3,
,,,-775.999971665E-6,1.1280000,,,,,-775.999971665E-6,-11.3760000E-3,
,,,-775.000022259E-6,1.1400000,,,,,-775.000022259E-6,-11.3760000E-3,
,,,-774.000014644E-6,1.1400000,,,,,-774.000014644E-6,-11.3760000E-3,
,,,-773.000007030E-6,1.1400000,,,,,-773.000007030E-6,-11.3760000E-3,
,,,-771.999999415E-6,1.1400000,,,,,-771.999999415E-6,-11.5024000E-3,
,,,-770.999991801E-6,1.1400000,,,,,-770.999991801E-6,-11.5024000E-3,
,,,-769.999984186E-6,1.1400000,,,,,-769.999984186E-6,-11.6288001E-3,
,,,-768.999976572E-6,1.1400000,,,,,-768.999976572E-6,-11.5024000E-3,
,,,-767.999968957E-6,1.1400000,,,,,-767.999968957E-6,-11.5024000E-3,
,,,-767.000019550E-6,1.1400000,,,,,-767.000019550E-6,-11.5024000E-3,
,,,-766.000011936E-6,1.1280000,,,,,-766.000011936E-6,-11.6288001E-3,
,,,-765.000004321E-6,1.1400000,,,,,-765.000004321E-6,-11.7552001E-3,
,,,-763.999996707E-6,1.1520000,,,,,-763.999996707E-6,-11.6288001E-3,
,,,-762.999989092E-6,1.1400000,,,,,-762.999989092E-6,-11.6288001E-3,
,,,-761.999981478E-6,1.1400000,,,,,-761.999981478E-6,-11.6288001E-3,
,,,-760.999973863E-6,1.1400000,,,,,-760.999973863E-6,-11.6288001E-3,
,,,-760.000024457E-6,1.1400000,,,,,-760.000024457E-6,-11.7552001E-3,
,,,-759.000016842E-6,1.1520000,,,,,-759.000016842E-6,-11.6288001E-3,
,,,-758.000009228E-6,1.1520000,,,,,-758.000009228E-6,-11.7552001E-3,
,,,-757.000001613E-6,1.1400000,,,,,-757.000001613E-6,-11.8816001E-3,
,,,-755.999993999E-6,1.1400000,,,,,-755.999993999E-6,-11.7552001E-3,
,,,-754.999986384E-6,1.1400000,,,,,-754.999986384E-6,-11.7552001E-3,
,,,-753.999978770E-6,1.1520000,,,,,-753.999978770E-6,-11.7552001E-3,
,,,-752.999971155E-6,1.1400000,,,,,-752.999971155E-6,-11.6288001E-3,
,,,-752.000021748E-6,1.1520000,,,,,-752.000021748E-6,-11.8816001E-3,
,,,-751.000014134E-6,1.1520000,,,,,-751.000014134E-6,-11.7552001E-3,
,,,-750.000006519E-6,1.1520000,,,,,-750.000006519E-6,-11.8816001E-3,
,,,-748.999998905E-6,1.1400000,,,,,-748.999998905E-6,-11.7552001E-3,
,,,-747.999991290E-6,1.1400000,,,,,-747.999991290E-6,-11.8816001E-3,
,,,-746.999983676E-6,1.1520000,,,,,-746.999983676E-6,-11.7552001E-3,
,,,-745.999976061E-6,1.1400000,,,,,-745.999976061E-6,-11.8816001E-3,
,,,-745.000026654E-6,1.1400000,,,,,-745.000026654E-6,-12.0080002E-3,
,,,-744.000019040E-6,1.1400000,,,,,-744.000019040E-6,-11.8816001E-3,
,,,-743.000011425E-6,1.1280000,,,,,-743.000011425E-6,-11.8816001E-3,
,,,-742.000003811E-6,1.1400000,,,,,-742.000003811E-6,-11.8816001E-3,
,,,-740.999996196E-6,1.1400000,,,,,-740.999996196E-6,-11.8816001E-3,
,,,-739.999988582E-6,1.1520000,,,,,-739.999988582E-6,-11.8816001E-3,
,,,-738.999980967E-6,1.1520000,,,,,-738.999980967E-6,-11.8816001E-3,
,,,-737.999973353E-6,1.1400000,,,,,-737.999973353E-6,-11.8816001E-3,
,,,-737.000023946E-6,1.1400000,,,,,-737.000023946E-6,-12.0080002E-3,
,,,-736.000016332E-6,1.1520000,,,,,-736.000016332E-6,-12.0080002E-3,
,,,-735.000008717E-6,1.1280000,,,,,-735.000008717E-6,-11.7552001E-3,
,,,-734.000001103E-6,1.1280000,,,,,-734.000001103E-6,-11.8816001E-3,
,,,-732.999993488E-6,1.1400000,,,,,-732.999993488E-6,-11.8816001E-3,
,,,-731.999985874E-6,1.1400000,,,,,-731.999985874E-6,-11.8816001E-3,
,,,-730.999978259E-6,1.1280000,,,,,-730.999978259E-6,-11.8816001E-3,
,,,-729.999970645E-6,1.1400000,,,,,-729.999970645E-6,-12.0080002E-3,
,,,-729.000021238E-6,1.1280000,,,,,-729.000021238E-6,-11.8816001E-3,
,,,-728.000013623E-6,1.1400000,,,,,-728.000013623E-6,-11.8816001E-3,
,,,-727.000006009E-6,1.1400000,,,,,-727.000006009E-6,-11.8816001E-3,
,,,-725.999998394E-6,1.1280000,,,,,-725.999998394E-6,-11.8816001E-3,
,,,-724.999990780E-6,1.1280000,,,,,-724.999990780E-6,-12.0080002E-3,
,,,-723.999983165E-6,1.1280000,,,,,-723.999983165E-6,-11.8816001E-3,
,,,-722.999975551E-6,1.1280000,,,,,-722.999975551E-6,-12.0080002E-3,
,,,-722.000026144E-6,1.1280000,,,,,-722.000026144E-6,-12.0080002E-3,
,,,-721.000018530E-6,1.1280000,,,,,-721.000018530E-6,-11.8816001E-3,
,,,-720.000010915E-6,1.1160001,,,,,-720.000010915E-6,-12.0080002E-3,
,,,-719.000003301E-6,1.1280000,,,,,-719.000003301E-6,-12.0080002E-3,
,,,-717.999995686E-6,1.1280000,,,,,-717.999995686E-6,-11.8816001E-3,
,,,-716.999988072E-6,1.1280000,,,,,-716.999988072E-6,-11.8816001E-3,
,,,-715.999980457E-6,1.1160001,,,,,-715.999980457E-6,-11.8816001E-3,
,,,-714.999972843E-6,1.1160001,,,,,-714.999972843E-6,-11.8816001E-3,
,,,-714.000023436E-6,1.1160001,,,,,-714.000023436E-6,-11.8816001E-3,
,,,-713.000015821E-6,1.1160001,,,,,-713.000015821E-6,-11.8816001E-3,
,,,-712.000008207E-6,1.1160001,,,,,-712.000008207E-6,-11.8816001E-3,
,,,-711.000000592E-6,1.1160001,,,,,-711.000000592E-6,-11.7552001E-3,
,,,-709.999992978E-6,1.0920000,,,,,-709.999992978E-6,-11.8816001E-3,
,,,-708.999985363E-6,1.1160001,,,,,-708.999985363E-6,-11.8816001E-3,
,,,-707.999977749E-6,1.1040000,,,,,-707.999977749E-6,-11.8816001E-3,
,,,-706.999970134E-6,1.1040000,,,,,-706.999970134E-6,-11.7552001E-3,
,,,-706.000020728E-6,1.1040000,,,,,-706.000020728E-6,-11.7552001E-3,
,,,-705.000013113E-6,1.1040000,,,,,-705.000013113E-6,-11.7552001E-3,
,,,-704.000005499E-6,1.1040000,,,,,-704.000005499E-6,-11.7552001E-3,
,,,-702.999997884E-6,1.1040000,,,,,-702.999997884E-6,-11.8816001E-3,
,,,-701.999990270E-6,1.0920000,,,,,-701.999990270E-6,-11.7552001E-3,
,,,-700.999982655E-6,1.0920000,,,,,-700.999982655E-6,-11.6288001E-3,
,,,-699.999975041E-6,1.1040000,,,,,-699.999975041E-6,-11.7552001E-3,
,,,-699.000025634E-6,1.0920000,,,,,-699.000025634E-6,-11.6288001E-3,
,,,-698.000018019E-6,1.0920000,,,,,-698.000018019E-6,-11.7552001E-3,
,,,-697.000010405E-6,1.0920000,,,,,-697.000010405E-6,-11.6288001E-3,
,,,-696.000002790E-6,1.0800000,,,,,-696.000002790E-6,-11.7552001E-3,
,,,-694.999995176E-6,1.0800000,,,,,-694.999995176E-6,-11.6288001E-3,
,,,-693.999987561E-6,1.0800000,,,,,-693.999987561E-6,-11.5024000E-3,
,,,-692.999979947E-6,1.0800000,,,,,-692.999979947E-6,-11.6288001E-3,
,,,-691.999972332E-6,1.0800000,,,,,-691.999972332E-6,-11.6288001E-3,
,,,-691.000022925E-6,1.0800000,,,,,-691.000022925E-6,-11.6288001E-3,
,,,-690.000015311E-6,1.0800000,,,,,-690.000015311E-6,-11.6288001E-3,
,,,-689.000007696E-6,1.0680000,,,,,-689.000007696E-6,-11.5024000E-3,
,,,-688.000000082E-6,1.0680000,,,,,-688.000000082E-6,-11.5024000E-3,
,,,-686.999992467E-6,1.0680000,,,,,-686.999992467E-6,-11.5024000E-3,
,,,-685.999984853E-6,1.0560000,,,,,-685.999984853E-6,-11.5024000E-3,
,,,-684.999977238E-6,1.0560000,,,,,-684.999977238E-6,-11.5024000E-3,
,,,-683.999969624E-6,1.0560000,,,,,-683.999969624E-6,-11.3760000E-3,
,,,-683.000020217E-6,1.0560000,,,,,-683.000020217E-6,-11.5024000E-3,
,,,-682.000012603E-6,1.0560000,,,,,-682.000012603E-6,-11.5024000E-3,
,,,-681.000004988E-6,1.0560000,,,,,-681.000004988E-6,-11.2496000E-3,
,,,-679.999997374E-6,1.0440000,,,,,-679.999997374E-6,-11.3760000E-3,
,,,-678.999989759E-6,1.0440000,,,,,-678.999989759E-6,-11.2496000E-3,
,,,-677.999982145E-6,1.0440000,,,,,-677.999982145E-6,-11.2496000E-3,
,,,-676.999974530E-6,1.0440000,,,,,-676.999974530E-6,-11.2496000E-3,
,,,-676.000025123E-6,1.0320001,,,,,-676.000025123E-6,-11.2496000E-3,
,,,-675.000017509E-6,1.0320001,,,,,-675.000017509E-6,-11.1231999E-3,
,,,-674.000009894E-6,1.0320001,,,,,-674.000009894E-6,-11.2496000E-3,
,,,-673.000002280E-6,1.0320001,,,,,-673.000002280E-6,-11.2496000E-3,
,,,-671.999994665E-6,1.0200000,,,,,-671.999994665E-6,-11.2496000E-3,
,,,-670.999987051E-6,1.0200000,,,,,-670.999987051E-6,-11.2496000E-3,
,,,-669.999979436E-6,1.0080000,,,,,-669.999979436E-6,-11.1231999E-3,
,,,-668.999971822E-6,1.0200000,,,,,-668.999971822E-6,-10.9967999E-3,
,,,-668.000022415E-6,1.0080000,,,,,-668.000022415E-6,-10.9967999E-3,
,,,-667.000014801E-6,1.0080000,,,,,-667.000014801E-6,-11.1231999E-3,
,,,-666.000007186E-6,1.0080000,,,,,-666.000007186E-6,-10.9967999E-3,
,,,-664.999999572E-6,1.0080000,,,,,-664.999999572E-6,-10.9967999E-3,
,,,-663.999991957E-6,1.0080000,,,,,-663.999991957E-6,-10.8703999E-3,
,,,-662.999984343E-6,995.999991894E-3,,,,,-662.999984343E-6,-10.8703999E-3,
,,,-661.999976728E-6,995.999991894E-3,,,,,-661.999976728E-6,-10.8703999E-3,
,,,-660.999969114E-6,984.000027180E-3,,,,,-660.999969114E-6,-10.8703999E-3,
,,,-660.000019707E-6,972.000002861E-3,,,,,-660.000019707E-6,-10.7439999E-3,
,,,-659.000012092E-6,984.000027180E-3,,,,,-659.000012092E-6,-10.7439999E-3,
,,,-658.000004478E-6,972.000002861E-3,,,,,-658.000004478E-6,-10.7439999E-3,
,,,-656.999996863E-6,972.000002861E-3,,,,,-656.999996863E-6,-10.7439999E-3,
,,,-655.999989249E-6,972.000002861E-3,,,,,-655.999989249E-6,-10.6175998E-3,
,,,-654.999981634E-6,960.000038147E-3,,,,,-654.999981634E-6,-10.6175998E-3,
,,,-653.999974020E-6,972.000002861E-3,,,,,-653.999974020E-6,-10.4911998E-3,
,,,-653.000024613E-6,960.000038147E-3,,,,,-653.000024613E-6,-10.4911998E-3,
,,,-652.000016998E-6,948.000013828E-3,,,,,-652.000016998E-6,-10.4911998E-3,
,,,-651.000009384E-6,948.000013828E-3,,,,,-651.000009384E-6,-10.4911998E-3,
,,,-650.000001770E-6,948.000013828E-3,,,,,-650.000001770E-6,-10.4911998E-3,
,,,-648.999994155E-6,948.000013828E-3,,,,,-648.999994155E-6,-10.3647998E-3,
,,,-647.999986541E-6,935.999989510E-3,,,,,-647.999986541E-6,-10.4911998E-3,
,,,-646.999978926E-6,935.999989510E-3,,,,,-646.999978926E-6,-10.3647998E-3,
,,,-645.999971312E-6,935.999989510E-3,,,,,-645.999971312E-6,-10.4911998E-3,
,,,-645.000021905E-6,935.999989510E-3,,,,,-645.000021905E-6,-10.4911998E-3,
,,,-644.000014290E-6,924.000024796E-3,,,,,-644.000014290E-6,-10.1120006E-3,
,,,-643.000006676E-6,912.000000477E-3,,,,,-643.000006676E-6,-10.2383997E-3,
,,,-641.999999061E-6,912.000000477E-3,,,,,-641.999999061E-6,-10.2383997E-3,
,,,-640.999991447E-6,912.000000477E-3,,,,,-640.999991447E-6,-10.2383997E-3,
,,,-639.999983832E-6,912.000000477E-3,,,,,-639.999983832E-6,-10.1120006E-3,
,,,-638.999976218E-6,900.000035763E-3,,,,,-638.999976218E-6,-10.2383997E-3,
,,,-638.000026811E-6,900.000035763E-3,,,,,-638.000026811E-6,-9.985600598E-3,
,,,-637.000019196E-6,888.000011444E-3,,,,,-637.000019196E-6,-9.985600598E-3,
,,,-636.000011582E-6,900.000035763E-3,,,,,-636.000011582E-6,-9.985600598E-3,
,,,-635.000003967E-6,888.000011444E-3,,,,,-635.000003967E-6,-9.859200567E-3,
,,,-633.999996353E-6,888.000011444E-3,,,,,-633.999996353E-6,-9.859200567E-3,
,,,-632.999988738E-6,888.000011444E-3,,,,,-632.999988738E-6,-9.859200567E-3,
,,,-631.999981124E-6,888.000011444E-3,,,,,-631.999981124E-6,-9.859200567E-3,
,,,-630.999973509E-6,864.000022411E-3,,,,,-630.999973509E-6,-9.732800536E-3,
,,,-630.000024103E-6,864.000022411E-3,,,,,-630.000024103E-6,-9.606400505E-3,
,,,-629.000016488E-6,864.000022411E-3,,,,,-629.000016488E-6,-9.732800536E-3,
,,,-628.000008874E-6,851.999998093E-3,,,,,-628.000008874E-6,-9.732800536E-3,
,,,-627.000001259E-6,851.999998093E-3,,,,,-627.000001259E-6,-9.606400505E-3,
,,,-625.999993645E-6,851.999998093E-3,,,,,-625.999993645E-6,-9.606400505E-3,
,,,-624.999986030E-6,840.000033379E-3,,,,,-624.999986030E-6,-9.606400505E-3,
,,,-623.999978416E-6,840.000033379E-3,,,,,-623.999978416E-6,-9.480000474E-3,
,,,-622.999970801E-6,828.000009060E-3,,,,,-622.999970801E-6,-9.353600442E-3,
,,,-622.000021394E-6,840.000033379E-3,,,,,-622.000021394E-6,-9.353600442E-3,
,,,-621.000013780E-6,828.000009060E-3,,,,,-621.000013780E-6,-9.353600442E-3,
,,,-620.000006165E-6,815.999984741E-3,,,,,-620.000006165E-6,-9.227200411E-3,
,,,-618.999998551E-6,815.999984741E-3,,,,,-618.999998551E-6,-9.100800380E-3,
,,,-617.999990936E-6,815.999984741E-3,,,,,-617.999990936E-6,-9.100800380E-3,
,,,-616.999983322E-6,815.999984741E-3,,,,,-616.999983322E-6,-8.974400349E-3,
,,,-615.999975707E-6,804.000020027E-3,,,,,-615.999975707E-6,-9.100800380E-3,
,,,-615.000026301E-6,804.000020027E-3,,,,,-615.000026301E-6,-8.974400349E-3,
,,,-614.000018686E-6,791.999995708E-3,,,,,-614.000018686E-6,-8.848000318E-3,
,,,-613.000011072E-6,791.999995708E-3,,,,,-613.000011072E-6,-8.848000318E-3,
,,,-612.000003457E-6,780.000030994E-3,,,,,-612.000003457E-6,-8.848000318E-3,
,,,-610.999995843E-6,780.000030994E-3,,,,,-610.999995843E-6,-8.848000318E-3,
,,,-609.999988228E-6,768.000006676E-3,,,,,-609.999988228E-6,-8.848000318E-3,
,,,-608.999980614E-6,768.000006676E-3,,,,,-608.999980614E-6,-8.595200256E-3,
,,,-607.999972999E-6,755.999982357E-3,,,,,-607.999972999E-6,-8.595200256E-3,
,,,-607.000023592E-6,768.000006676E-3,,,,,-607.000023592E-6,-8.595200256E-3,
,,,-606.000015978E-6,755.999982357E-3,,,,,-606.000015978E-6,-8.468800224E-3,
,,,-605.000008363E-6,744.000017643E-3,,,,,-605.000008363E-6,-8.595200256E-3,
,,,-604.000000749E-6,744.000017643E-3,,,,,-604.000000749E-6,-8.468800224E-3,
,,,-602.999993134E-6,744.000017643E-3,,,,,-602.999993134E-6,-8.342400193E-3,
,,,-601.999985520E-6,731.999993324E-3,,,,,-601.999985520E-6,-8.342400193E-3,
,,,-600.999977905E-6,731.999993324E-3,,,,,-600.999977905E-6,-8.216000162E-3,
,,,-599.999970291E-6,720.000028610E-3,,,,,-599.999970291E-6,-8.216000162E-3,
,,,-599.000020884E-6,708.000004292E-3,,,,,-599.000020884E-6,-8.216000162E-3,
,,,-598.000013269E-6,708.000004292E-3,,,,,-598.000013269E-6,-8.089600131E-3,
,,,-597.000005655E-6,708.000004292E-3,,,,,-597.000005655E-6,-7.963200100E-3,
,,,-595.999998040E-6,695.999979973E-3,,,,,-595.999998040E-6,-7.963200100E-3,
,,,-594.999990426E-6,684.000015259E-3,,,,,-594.999990426E-6,-7.963200100E-3,
,,,-593.999982812E-6,684.000015259E-3,,,,,-593.999982812E-6,-7.836800069E-3,
,,,-592.999975197E-6,684.000015259E-3,,,,,-592.999975197E-6,-7.710400037E-3,
,,,-592.000025790E-6,671.999990940E-3,,,,,-592.000025790E-6,-7.710400037E-3,
,,,-591.000018176E-6,671.999990940E-3,,,,,-591.000018176E-6,-7.584000006E-3,
,,,-590.000010561E-6,660.000026226E-3,,,,,-590.000010561E-6,-7.584000006E-3,
,,,-589.000002947E-6,660.000026226E-3,,,,,-589.000002947E-6,-7.457599975E-3,
,,,-587.999995332E-6,648.000001907E-3,,,,,-587.999995332E-6,-7.584000006E-3,
,,,-586.999987718E-6,648.000001907E-3,,,,,-586.999987718E-6,-7.457599975E-3,
,,,-585.999980103E-6,635.999977589E-3,,,,,-585.999980103E-6,-7.457599975E-3,
,,,-584.999972489E-6,635.999977589E-3,,,,,-584.999972489E-6,-7.457599975E-3,
,,,-584.000023082E-6,635.999977589E-3,,,,,-584.000023082E-6,-7.20479991E-3,
,,,-583.000015467E-6,624.000012875E-3,,,,,-583.000015467E-6,-7.20479991E-3,
,,,-582.000007853E-6,624.000012875E-3,,,,,-582.000007853E-6,-7.20479991E-3,
,,,-581.000000238E-6,611.999988556E-3,,,,,-581.000000238E-6,-7.07839988E-3,
,,,-579.999992624E-6,600.000023842E-3,,,,,-579.999992624E-6,-6.95200032E-3,
,,,-578.999985009E-6,600.000023842E-3,,,,,-578.999985009E-6,-6.95200032E-3,
,,,-577.999977395E-6,600.000023842E-3,,,,,-577.999977395E-6,-6.95200032E-3,
,,,-576.999969780E-6,587.999999523E-3,,,,,-576.999969780E-6,-6.82560029E-3,
,,,-576.000020374E-6,575.999975204E-3,,,,,-576.000020374E-6,-6.69920025E-3,
,,,-575.000012759E-6,575.999975204E-3,,,,,-575.000012759E-6,-6.82560029E-3,
,,,-574.000005145E-6,575.999975204E-3,,,,,-574.000005145E-6,-6.69920025E-3,
,,,-572.999997530E-6,575.999975204E-3,,,,,-572.999997530E-6,-6.69920025E-3,
,,,-571.999989916E-6,564.000010490E-3,,,,,-571.999989916E-6,-6.44640019E-3,
,,,-570.999982301E-6,551.999986172E-3,,,,,-570.999982301E-6,-6.44640019E-3,
,,,-569.999974687E-6,551.999986172E-3,,,,,-569.999974687E-6,-6.32000016E-3,
,,,-569.000025280E-6,540.000021458E-3,,,,,-569.000025280E-6,-6.32000016E-3,
,,,-568.000017665E-6,527.999997139E-3,,,,,-568.000017665E-6,-6.32000016E-3,
,,,-567.000010051E-6,527.999997139E-3,,,,,-567.000010051E-6,-6.19360013E-3,
,,,-566.000002436E-6,516.000032425E-3,,,,,-566.000002436E-6,-6.19360013E-3,
,,,-564.999994822E-6,516.000032425E-3,,,,,-564.999994822E-6,-5.94080007E-3,
,,,-563.999987207E-6,504.000008106E-3,,,,,-563.999987207E-6,-5.94080007E-3,
,,,-562.999979593E-6,492.000013590E-3,,,,,-562.999979593E-6,-5.81440004E-3,
,,,-561.999971978E-6,492.000013590E-3,,,,,-561.999971978E-6,-5.81440004E-3,
,,,-561.000022572E-6,480.000019073E-3,,,,,-561.000022572E-6,-5.81440004E-3,
,,,-560.000014957E-6,480.000019073E-3,,,,,-560.000014957E-6,-5.81440004E-3,
,,,-559.000007343E-6,480.000019073E-3,,,,,-559.000007343E-6,-5.56159997E-3,
,,,-557.999999728E-6,467.999994755E-3,,,,,-557.999999728E-6,-5.68800000E-3,
,,,-556.999992114E-6,467.999994755E-3,,,,,-556.999992114E-6,-5.56159997E-3,
,,,-555.999984499E-6,456.000000238E-3,,,,,-555.999984499E-6,-5.30879991E-3,
,,,-554.999976885E-6,456.000000238E-3,,,,,-554.999976885E-6,-5.43519994E-3,
,,,-554.000027478E-6,444.000005722E-3,,,,,-554.000027478E-6,-5.30879991E-3,
,,,-553.000019863E-6,444.000005722E-3,,,,,-553.000019863E-6,-5.30879991E-3,
,,,-552.000012249E-6,444.000005722E-3,,,,,-552.000012249E-6,-5.30879991E-3,
,,,-551.000004634E-6,420.000016689E-3,,,,,-551.000004634E-6,-4.92960028E-3,
,,,-549.999997020E-6,420.000016689E-3,,,,,-549.999997020E-6,-5.05600031E-3,
,,,-548.999989405E-6,407.999992371E-3,,,,,-548.999989405E-6,-4.92960028E-3,
,,,-547.999981791E-6,395.99999785E-3,,,,,-547.999981791E-6,-4.92960028E-3,
,,,-546.999974176E-6,395.99999785E-3,,,,,-546.999974176E-6,-4.80320025E-3,
,,,-546.000024769E-6,384.00000334E-3,,,,,-546.000024769E-6,-4.80320025E-3,
,,,-545.000017155E-6,384.00000334E-3,,,,,-545.000017155E-6,-4.67680022E-3,
,,,-544.000009540E-6,372.00000882E-3,,,,,-544.000009540E-6,-4.67680022E-3,
,,,-543.000001926E-6,372.00000882E-3,,,,,-543.000001926E-6,-4.55040019E-3,
